starting vacuum...end.
transaction type: <builtin: TPC-B (sort of)>
scaling factor: 1000
query mode: simple
number of clients: 8
number of threads: 2
duration: 7200 s
number of transactions actually processed: 30205752
latency average = 1.907 ms
tps = 4195.236905 (including connections establishing)
tps = 4195.237570 (excluding connections establishing)
