starting vacuum...end.
transaction type: skewed.sql
scaling factor: 300
query mode: simple
number of clients: 8
number of threads: 2
duration: 7200 s
number of transactions actually processed: 52165648
latency average = 1.104 ms
tps = 7245.225038 (including connections establishing)
tps = 7245.226085 (excluding connections establishing)
